{
    "compilerOptions": {
        "baseUrl": "src",
        "paths": {
            "@/*": ["./src/*"],
            "app/*": ["./src/app/*"],
            "assets/*": ["./src/assets/*"],
            "router/*": ["./src/router/*"],
            "views/*": ["./src/views/*"],
        }
    },
    "include": ["src"]
}